digraph {
  node[label = ""];
  rankdir = LR;
  fontname = Helvetica;

  subgraph cluster0 {
    label = "evolutionary algorithms";
    ea_a0 -> ea_a1;
    ea_b0 -> ea_b1;
    ea_c0 -> ea_c1;
    ea_d0 -> ea_d1;
  }

  subgraph cluster1 {
    label = "evolutionary strategies";
    es_0 -> {es_1, es_2, es_3, es_4};
  }

  subgraph cluster2 {
    label = "evolutionary programs";
    {rank = same; ep_00, ep_01, ep_02, ep_03, ep_04;}
    {rank = same; ep_10, ep_11, ep_12, ep_13, ep_14;}
    ep_00 -> ep_10[style=invis];
  }
}
